<svg width="30" height="30" viewBox="0 0 30 30" fill="none" xmlns="http://www.w3.org/2000/svg">
<path fill-rule="evenodd" clip-rule="evenodd" d="M7.41421 4.58578C6.63317 3.80474 5.36683 3.80473 4.58579 4.58578C3.80474 5.36683 3.80474 6.63316 4.58579 7.41421L12.364 15.1924L4.58584 22.9706C3.80479 23.7516 3.80479 25.0179 4.58584 25.799C5.36689 26.58 6.63322 26.58 7.41427 25.799L15.1924 18.0208L22.9706 25.799C23.7516 26.58 25.0179 26.58 25.799 25.799C26.58 25.0179 26.58 23.7516 25.799 22.9706L18.0208 15.1924L25.799 7.41421C26.5801 6.63317 26.5801 5.36684 25.799 4.58579C25.018 3.80474 23.7517 3.80474 22.9706 4.58579L15.1924 12.364L7.41421 4.58578Z" fill="#3C3844"/>
</svg>
