<svg width="24" height="24" viewBox="0 0 24 24" fill="none" xmlns="http://www.w3.org/2000/svg">
<path d="M24 12C24 11.8542 23.9974 11.709 23.9923 11.5645C23.763 5.13881 18.4816 0 12 0C5.51836 0 0.237 5.13881 0.00778125 11.5645C0.002625 11.709 0 11.8542 0 12C0 18.6274 6.16416 23.5645 12 23.5645C17.9416 23.5645 24 18.6274 24 12Z" fill="#FF5876"/>
<path d="M12 23.129C5.51845 23.129 0.238031 17.9901 0.00871875 11.5645C0.00351563 11.7092 0 11.8542 0 12C0 18.6275 5.37258 24 12 24C18.6274 24 24 18.6275 24 12C24 11.8542 23.9965 11.7092 23.9913 11.5646C23.762 17.9901 18.4815 23.129 12 23.129Z" fill="#E6485D"/>
<path d="M22.0039 11.5645C21.7759 6.23638 17.3842 1.98669 11.9999 1.98669C6.61561 1.98669 2.22389 6.23638 1.99589 11.5645C1.9897 11.7089 1.99585 21.3764 11.9999 21.3764C22.004 21.3764 22.0101 11.7089 22.0039 11.5645Z" fill="#E4EEF9"/>
<path d="M12 21.1424C6.61579 21.1424 2.22477 16.8926 1.99668 11.5645C1.99049 11.709 1.98669 11.854 1.98669 12C1.98669 17.5302 6.46982 22.0133 12 22.0133C17.5303 22.0133 22.0134 17.5302 22.0134 12C22.0134 11.8541 22.0095 11.709 22.0034 11.5646C21.7753 16.8926 17.3843 21.1424 12 21.1424Z" fill="#D5E0F2"/>
<path d="M15.6373 8.48672C15.3519 8.20524 14.8923 8.20838 14.6109 8.49375L12.9077 10.2205L13.0789 11.0425L13.8744 11.3076L15.6444 9.51314C15.9258 9.22777 15.9227 8.76821 15.6373 8.48672Z" fill="#405B6C"/>
<path d="M10.9726 10.2866L7.11004 6.84448C6.81074 6.57776 6.35198 6.6042 6.0853 6.90349C5.81863 7.20274 5.84502 7.66156 6.14432 7.92823L10.083 11.4381L10.9037 11.1644L10.9726 10.2866Z" fill="#405B6C"/>
<path d="M17.1392 16.6798C17.0568 16.6798 16.974 16.6519 16.906 16.5948L12.3088 12.7333C12.1554 12.6044 12.1354 12.3755 12.2643 12.2221C12.3932 12.0686 12.6221 12.0486 12.7756 12.1776L17.3728 16.0391C17.5262 16.168 17.5462 16.3969 17.4173 16.5504C17.3455 16.6358 17.2427 16.6798 17.1392 16.6798Z" fill="#86DCFF"/>
<path d="M10.0829 11.4381L10.7607 12.0421L11.6312 11.7464L11.584 10.8314L10.9726 10.2866C10.5472 10.5422 10.2252 10.9517 10.0829 11.4381Z" fill="#2D4456"/>
<path d="M12.9077 10.2206L12.3314 10.8048V11.9517H13.2392L13.8745 11.3077C13.6999 10.8353 13.3517 10.4475 12.9077 10.2206Z" fill="#2D4456"/>
<path d="M13.1618 11.5644C12.9854 11.0943 12.5318 10.7596 12.0001 10.7596C11.4683 10.7596 11.0147 11.0943 10.8384 11.5644C10.7876 11.7 10.835 12.8048 12.0001 12.8048C13.1651 12.8048 13.2126 11.7 13.1618 11.5644Z" fill="#FF5876"/>
<path d="M11.9999 12.3694C11.4681 12.3694 11.0147 12.0347 10.8384 11.5645C10.7875 11.7 10.7595 11.8467 10.7595 12C10.7595 12.685 11.3148 13.2403 11.9998 13.2403C12.6849 13.2403 13.2401 12.685 13.2401 12C13.2401 11.8467 13.2122 11.7 13.1613 11.5645C12.9851 12.0346 12.5316 12.3694 11.9999 12.3694Z" fill="#E6485D"/>
<path d="M12.3635 4.38624V3.25997C12.3635 3.05916 12.2007 2.89636 11.9998 2.89636C11.799 2.89636 11.6362 3.05916 11.6362 3.25997V4.38624C11.6362 4.58705 11.799 4.74985 11.9998 4.74985C12.2007 4.74985 12.3635 4.58705 12.3635 4.38624Z" fill="#405B6C"/>
<path d="M11.6362 19.6137V20.74C11.6362 20.9408 11.799 21.1036 11.9998 21.1036C12.2007 21.1036 12.3635 20.9408 12.3635 20.74V19.6137C12.3635 19.4129 12.2007 19.2501 11.9998 19.2501C11.799 19.2501 11.6362 19.4129 11.6362 19.6137Z" fill="#405B6C"/>
<path d="M20.74 12.3636C20.9409 12.3636 21.1036 12.2008 21.1036 12C21.1036 11.7992 20.9408 11.6364 20.74 11.6364H19.6137C19.4129 11.6364 19.2501 11.7992 19.2501 12C19.2501 12.2008 19.4129 12.3636 19.6137 12.3636H20.74Z" fill="#405B6C"/>
<path d="M3.25985 11.6364C3.05899 11.6364 2.89624 11.7992 2.89624 12C2.89624 12.2008 3.05899 12.3636 3.25985 12.3636H4.38611C4.58697 12.3636 4.74972 12.2008 4.74972 12C4.74972 11.7992 4.58693 11.6364 4.38611 11.6364H3.25985Z" fill="#405B6C"/>
</svg>
