<svg width="60" height="78" viewBox="0 0 60 78" fill="none" xmlns="http://www.w3.org/2000/svg">
<path d="M36.3614 36.9936H13.6904C14.265 33.4302 16.0357 30.7951 21.1171 30.7951L44.179 30.6686C43.5512 35.3751 40.7914 36.9936 36.3614 36.9936Z" fill="#FBC775"/>
<path d="M32.5837 48H18.2515C18.6542 44.4365 20.9442 41.6749 24.5055 41.6749H39.6195C39.1795 46.3815 35.6885 48 32.5837 48Z" fill="#FBC775"/>
<path d="M19.1629 10.4295V2.33346C12.8977 6.32927 9.39088 11.6942 9 19.1577V25.9891H20.4658C26.4593 25.9891 32.3225 23.0793 32.1922 14.7302V6.761C38.1803 8.14938 42.2248 12.8327 42.4853 19.6641H38.7068C39.1175 23.234 41.443 25.9891 44.57 25.9891H49C49 21.3083 49 16.3351 47.6971 12.8327C45.9357 8.09785 42.3967 3.79363 37.013 1.57409C33.9399 0.307137 30.2905 -0.176309 25.6775 0.0564458V14.7302C25.6775 17.8927 23.7231 19.6641 20.4658 19.6641H15.3844C15.6122 15.6615 16.3885 13.625 19.1629 10.4295Z" fill="#FBC775"/>
<path d="M2.35239 59.7H5.43039V73H2.35239V59.7ZM14.5908 62.626C15.8574 62.626 16.8771 63.006 17.6498 63.766C18.4351 64.526 18.8278 65.6533 18.8278 67.148V73H15.8638V67.604C15.8638 66.7933 15.6864 66.1917 15.3318 65.799C14.9771 65.3937 14.4641 65.191 13.7928 65.191C13.0454 65.191 12.4501 65.4253 12.0068 65.894C11.5634 66.35 11.3418 67.034 11.3418 67.946V73H8.37777V62.778H11.2088V63.975C11.6014 63.5443 12.0891 63.215 12.6718 62.987C13.2544 62.7463 13.8941 62.626 14.5908 62.626ZM21.7235 59.7H27.7655C29.2095 59.7 30.4825 59.9787 31.5845 60.536C32.6992 61.0807 33.5605 61.8533 34.1685 62.854C34.7892 63.8547 35.0995 65.02 35.0995 66.35C35.0995 67.68 34.7892 68.8453 34.1685 69.846C33.5605 70.8467 32.6992 71.6257 31.5845 72.183C30.4825 72.7277 29.2095 73 27.7655 73H21.7235V59.7ZM27.6135 70.473C28.9435 70.473 30.0012 70.1057 30.7865 69.371C31.5845 68.6237 31.9835 67.6167 31.9835 66.35C31.9835 65.0833 31.5845 64.0827 30.7865 63.348C30.0012 62.6007 28.9435 62.227 27.6135 62.227H24.8015V70.473H27.6135ZM47.2248 67.927C47.2248 67.965 47.2058 68.231 47.1678 68.725H39.4348C39.5741 69.3583 39.9034 69.8587 40.4228 70.226C40.9421 70.5933 41.5881 70.777 42.3608 70.777C42.8928 70.777 43.3614 70.701 43.7668 70.549C44.1848 70.3843 44.5711 70.131 44.9258 69.789L46.5028 71.499C45.5401 72.601 44.1341 73.152 42.2848 73.152C41.1321 73.152 40.1124 72.9303 39.2258 72.487C38.3391 72.031 37.6551 71.404 37.1738 70.606C36.6924 69.808 36.4518 68.9023 36.4518 67.889C36.4518 66.8883 36.6861 65.989 37.1548 65.191C37.6361 64.3803 38.2884 63.7533 39.1118 63.31C39.9478 62.854 40.8788 62.626 41.9048 62.626C42.9054 62.626 43.8111 62.8413 44.6218 63.272C45.4324 63.7027 46.0658 64.3233 46.5218 65.134C46.9904 65.932 47.2248 66.863 47.2248 67.927ZM41.9238 64.868C41.2524 64.868 40.6888 65.058 40.2328 65.438C39.7768 65.818 39.4981 66.3373 39.3968 66.996H44.4318C44.3304 66.35 44.0518 65.837 43.5958 65.457C43.1398 65.0643 42.5824 64.868 41.9238 64.868ZM59.1585 62.778L54.8455 73H51.7865L47.4925 62.778H50.5515L53.3825 69.732L56.3085 62.778H59.1585Z" fill="#FBC775"/>
</svg>
