<svg width="24" height="24" viewBox="0 0 24 24" fill="none" xmlns="http://www.w3.org/2000/svg">
<path fill-rule="evenodd" clip-rule="evenodd" d="M5.6 3C5.6 2.44772 5.95817 2 6.4 2H17.6C18.0418 2 18.4 2.44772 18.4 3C18.4 3.55228 18.0418 4 17.6 4H6.4C5.95817 4 5.6 3.55228 5.6 3ZM0 12C0 11.4477 0.358172 11 0.8 11H23.2C23.6418 11 24 11.4477 24 12C24 12.5523 23.6418 13 23.2 13H0.8C0.358172 13 0 12.5523 0 12ZM5.6 21C5.6 20.4477 5.95817 20 6.4 20H17.6C18.0418 20 18.4 20.4477 18.4 21C18.4 21.5523 18.0418 22 17.6 22H6.4C5.95817 22 5.6 21.5523 5.6 21Z" fill="#44485E"/>
</svg>
