<svg width="100" height="100" viewBox="0 0 100 100" fill="none" xmlns="http://www.w3.org/2000/svg">
<circle cx="50" cy="50" r="50" fill="#F2F3F7"/>
<path d="M39 67.8928V29.1072C39 27.4397 40.9206 26.5045 42.2333 27.5328L66.9901 46.9255C68.0123 47.7263 68.0123 49.2737 66.9901 50.0745L42.2333 69.4672C40.9206 70.4955 39 69.5603 39 67.8928Z" fill="#44485E"/>
</svg>
