<svg width="26" height="26" viewBox="0 0 26 26" fill="none" xmlns="http://www.w3.org/2000/svg">
<path fill-rule="evenodd" clip-rule="evenodd" d="M3.40482 13.3295C2.17386 9.50569 3.81152 5.49738 7.48311 4.31529C9.2404 3.75003 11.1419 3.95344 12.733 4.85623L12.9964 5.01429L13.2645 4.85535C14.773 4.0013 16.5624 3.77309 18.2463 4.23623L18.512 4.31535C22.1847 5.4978 23.8291 9.50801 22.5937 13.3452C21.9743 15.1301 20.9584 16.7485 19.6174 18.0824C17.7927 19.8545 15.7812 21.4194 13.6218 22.7473L13.3926 22.8897C13.1598 23.0344 12.8656 23.0369 12.6304 22.8961L12.3849 22.7491C10.2225 21.4194 8.21101 19.8545 6.38004 18.0762C5.04534 16.7485 4.02947 15.1301 3.40482 13.3295Z" fill="#EB5757"/>
<path d="M16.9541 8.03485C16.5693 7.91204 16.1578 8.12415 16.0349 8.5086C15.912 8.89305 16.1242 9.30427 16.509 9.42708C17.2653 9.66846 17.8044 10.3491 17.872 11.1521C17.9058 11.5542 18.2595 11.8529 18.662 11.8191C19.0646 11.7852 19.3634 11.4318 19.3296 11.0296C19.2126 9.6397 18.2756 8.45662 16.9541 8.03485Z" fill="white"/>
</svg>
