<svg width="48" height="48" viewBox="0 0 48 48" fill="none" xmlns="http://www.w3.org/2000/svg">
<path fill-rule="evenodd" clip-rule="evenodd" d="M27.4556 13.3423C26.9992 12.8859 26.2595 12.8859 25.8026 13.3423L20.3992 18.7457L14.9953 13.3423C14.5389 12.8859 13.7987 12.8859 13.3423 13.3423C12.8859 13.7987 12.8859 14.5389 13.3423 14.9953L18.7457 20.3992L13.3423 25.8026C12.8859 26.259 12.8859 26.9992 13.3423 27.4556C13.5703 27.684 13.8696 27.798 14.1686 27.798C14.4679 27.798 14.7669 27.684 14.9953 27.4556L20.3987 22.0522L25.8022 27.4556C26.0306 27.684 26.33 27.798 26.6289 27.798C26.9283 27.798 27.2272 27.684 27.4556 27.4556C27.912 26.9992 27.912 26.259 27.4556 25.8026L22.0517 20.3992L27.4556 14.9953C27.912 14.5389 27.912 13.7987 27.4556 13.3423Z" fill="#5E6586"/>
<path d="M33.6264 33.6264C36.979 30.2738 39.0526 25.6422 39.0526 20.5263C39.0526 10.2945 30.7581 2 20.5263 2C10.2945 2 2 10.2945 2 20.5263C2 30.7581 10.2945 39.0526 20.5263 39.0526C25.6422 39.0526 30.2738 36.979 33.6264 33.6264ZM33.6264 33.6264L46 46" stroke="url(#paint0_linear_0_1)" stroke-width="3" stroke-linecap="round" stroke-linejoin="round"/>
<defs>
<linearGradient id="paint0_linear_0_1" x1="18.0658" y1="-2.10165" x2="40.916" y2="50.1338" gradientUnits="userSpaceOnUse">
<stop stop-color="#A90084"/>
<stop offset="1" stop-color="#FF46AA"/>
</linearGradient>
</defs>
</svg>
